; Engine configuration file.
; It's best edited using the editor UI and not directly,
; since the parameters that go here are not all obvious.
;
; Format:
;   [section] ; section goes between []
;   param=value ; assign values to parameters

config_version=4

_global_script_classes=[  ]
_global_script_class_icons={

}

[application]

config/name="Knight of Chronos"
run/main_scene="res://Scenes/MainMenu.tscn"
config/icon="res://icon.png"

[autoload]

Global="*res://Global.gd"

[display]

window/size/resizable=false

[input]

ui_accept={
"deadzone": 0.5,
"events": [ Object(InputEventKey,"resource_local_to_scene":false,"resource_name":"","device":0,"alt":false,"shift":false,"control":false,"meta":false,"command":false,"pressed":false,"scancode":16777221,"unicode":0,"echo":false,"script":null)
 ]
}
ui_select={
"deadzone": 0.5,
"events": [  ]
}
ui_cancel={
"deadzone": 0.5,
"events": [  ]
}
ui_focus_next={
"deadzone": 0.5,
"events": [  ]
}
ui_focus_prev={
"deadzone": 0.5,
"events": [  ]
}
ui_left={
"deadzone": 0.5,
"events": [  ]
}
ui_right={
"deadzone": 0.5,
"events": [  ]
}
ui_up={
"deadzone": 0.5,
"events": [  ]
}
ui_down={
"deadzone": 0.5,
"events": [  ]
}
ui_page_up={
"deadzone": 0.5,
"events": [  ]
}
ui_page_down={
"deadzone": 0.5,
"events": [  ]
}
ui_home={
"deadzone": 0.5,
"events": [  ]
}
ui_end={
"deadzone": 0.5,
"events": [  ]
}
Attack={
"deadzone": 0.5,
"events": [ Object(InputEventKey,"resource_local_to_scene":false,"resource_name":"","device":0,"alt":false,"shift":false,"control":false,"meta":false,"command":false,"pressed":false,"scancode":90,"unicode":0,"echo":false,"script":null)
 ]
}
Right={
"deadzone": 0.5,
"events": [ Object(InputEventKey,"resource_local_to_scene":false,"resource_name":"","device":0,"alt":false,"shift":false,"control":false,"meta":false,"command":false,"pressed":false,"scancode":16777233,"unicode":0,"echo":false,"script":null)
 ]
}
Left={
"deadzone": 0.5,
"events": [ Object(InputEventKey,"resource_local_to_scene":false,"resource_name":"","device":0,"alt":false,"shift":false,"control":false,"meta":false,"command":false,"pressed":false,"scancode":16777231,"unicode":0,"echo":false,"script":null)
 ]
}
Jump={
"deadzone": 0.5,
"events": [ Object(InputEventKey,"resource_local_to_scene":false,"resource_name":"","device":0,"alt":false,"shift":false,"control":false,"meta":false,"command":false,"pressed":false,"scancode":32,"unicode":0,"echo":false,"script":null)
 ]
}
ZA_WARUDO={
"deadzone": 0.5,
"events": [ Object(InputEventKey,"resource_local_to_scene":false,"resource_name":"","device":0,"alt":false,"shift":false,"control":false,"meta":false,"command":false,"pressed":false,"scancode":83,"unicode":0,"echo":false,"script":null)
 ]
}

[rendering]

environment/default_environment="res://default_env.tres"
